{
  "JP Faulkner": {
    "run": 21,
    "ball": 10,
    "economy": 12.6
  },
  "JJ Bumrah": {
    "run": 3,
    "ball": 6,
    "economy": 3
  },
  "Kamran Khan": {
    "run": 15,
    "ball": 6,
    "economy": 15
  },
  "BAW Mendis": {
    "run": 18,
    "ball": 3,
    "economy": 36
  },
  "J Theron": {
    "run": 9,
    "ball": 4,
    "economy": 13.5
  },
  "M Muralitharan": {
    "run": 10,
    "ball": 3,
    "economy": 20
  },
  "R Vinay Kumar": {
    "run": 18,
    "ball": 5,
    "economy": 21.6
  },
  "DW Steyn": {
    "run": 15,
    "ball": 5,
    "economy": 18
  },
  "UT Yadav": {
    "run": 15,
    "ball": 5,
    "economy": 18
  },
  "R Rampaul": {
    "run": 11,
    "ball": 5,
    "economy": 13.2
  },
  "SP Narine": {
    "run": 11,
    "ball": 5,
    "economy": 13.2
  },
  "CH Morris": {
    "run": 9,
    "ball": 5,
    "economy": 10.8
  },
  "MG Johnson": {
    "run": 1,
    "ball": 2,
    "economy": 3
  }
}